﻿TargetView Campaign Name,Adwords CID,AdWords Campaign ID,AdWords Campaign Name,Start Date,End Date,Campaign Budget,Margin,Placement ID,Placement Name,BudgetGroupTimedBudgetId,CampaignManagerEmail
UM McCormick Old Bay May-Sept 2018 Instream,176-960-1998,1414056360,Atlanta - 15,5/25/2018,5/31/2018,"$2,754.51",39.77%,221668821,McCormick_OldBay_OldBay_2Sightly_Sightly_Video_RON_Atlanta_GEO_CPV_SS_:15Seconds_:15_SK_Multi_A18+,,cwilliams@sightly.com
UM McCormick Old Bay May-Sept 2018 Instream,176-960-1998,1414128210,Atlanta - 30,5/25/2018,5/31/2018,"$2,754.51",39.77%,221665593,McCormick_OldBay_OldBay_11Sightly_Sightly_Video_RON_Atlanta_GEO_CPV_SS_:30Seconds_:30_SK_Multi_A18+,,cwilliams@sightly.com
UM McCormick Old Bay May-Sept 2018 Instream,176-960-1998,1414128213,Baltimore - 15,5/25/2018,5/31/2018,"$1,652.79",39.77%,221499563,McCormick_OldBay_OldBay_4Sightly_Sightly_Video_RON_Baltimore_GEO_CPV_SS_:15Seconds_:15_SK_Multi_A18+,,cwilliams@sightly.com
UM McCormick Old Bay May-Sept 2018 Instream,176-960-1998,1414128216,Baltimore - 30,5/25/2018,5/31/2018,"$1,652.79",39.77%,221665587,McCormick_OldBay_OldBay_12Sightly_Sightly_Video_RON_Baltimore_GEO_CPV_SS_:30Seconds_:30_SK_Multi_A18+,,cwilliams@sightly.com
UM McCormick Old Bay May-Sept 2018 Instream,176-960-1998,1414128219,Richmond/ Norfolk - 15,5/25/2018,5/31/2018,"$2,203.65",39.77%,221665602,McCormick_OldBay_OldBay_6Sightly_Sightly_Video_RON_Richmond/Norfolk_GEO_CPV_SS_:15Seconds_:15_SK_Multi_A18+,,cwilliams@sightly.com
UM McCormick Old Bay May-Sept 2018 Instream,176-960-1998,1414128222,Richmond/ Norfolk - 30,5/25/2018,5/31/2018,"$2,203.65",39.77%,221499575,McCormick_OldBay_OldBay_13Sightly_Sightly_Video_RON_Richmond/Norfolk_GEO_CPV_SS_:30Seconds_:30_SK_Multi_A18+,,cwilliams@sightly.com
UM McCormick Old Bay May-Sept 2018 Instream,176-960-1998,1414128225,South Carolina - 15,5/25/2018,5/31/2018,"$2,754.60",39.77%,221668818,McCormick_OldBay_OldBay_8Sightly_Sightly_Video_RON_SouthCarolina_GEO_CPV_SS_:15Seconds_:15_SK_Multi_A18+,,cwilliams@sightly.com
UM McCormick Old Bay May-Sept 2018 Instream,176-960-1998,1414128228,South Carolina - 30,5/25/2018,5/31/2018,"$2,754.60",39.77%,221562526,McCormick_OldBay_OldBay_14Sightly_Sightly_Video_RON_SouthCarolina_GEO_CPV_SS_:30Seconds_:30_SK_Multi_A18+,,cwilliams@sightly.com
UM McCormick Old Bay May-Sept 2018 Instream,176-960-1998,1414128231,Washington - 15,5/25/2018,5/31/2018,"$1,652.79",39.77%,221665581,McCormick_OldBay_OldBay_10Sightly_Sightly_Video_RON_Washington_GEO_CPV_SS_:15Seconds_:15_SK_Multi_A18+,,cwilliams@sightly.com
UM McCormick Old Bay May-Sept 2018 Instream,176-960-1998,1414128234,Washington - 30,5/25/2018,5/31/2018,"$1,652.79",39.77%,221667855,McCormick_OldBay_OldBay_15Sightly_Sightly_Video_RON_Washington_GEO_CPV_SS_:30Seconds_:30_SK_Multi_A18+,,cwilliams@sightly.com
UM McCormick Old Bay May-Sept 2018 Instream,176-960-1998,1414056360,Atlanta - 15,6/1/2018,6/30/2018,"$7,512.30",39.77%,221668821,McCormick_OldBay_OldBay_2Sightly_Sightly_Video_RON_Atlanta_GEO_CPV_SS_:15Seconds_:15_SK_Multi_A18+,,cwilliams@sightly.com
UM McCormick Old Bay May-Sept 2018 Instream,176-960-1998,1414128210,Atlanta - 30,6/1/2018,6/30/2018,"$7,512.30",39.77%,221665593,McCormick_OldBay_OldBay_11Sightly_Sightly_Video_RON_Atlanta_GEO_CPV_SS_:30Seconds_:30_SK_Multi_A18+,,cwilliams@sightly.com
UM McCormick Old Bay May-Sept 2018 Instream,176-960-1998,1414128213,Baltimore - 15,6/1/2018,6/30/2018,"$4,507.36",39.77%,221499563,McCormick_OldBay_OldBay_4Sightly_Sightly_Video_RON_Baltimore_GEO_CPV_SS_:15Seconds_:15_SK_Multi_A18+,,cwilliams@sightly.com
UM McCormick Old Bay May-Sept 2018 Instream,176-960-1998,1414128216,Baltimore - 30,6/1/2018,6/30/2018,"$4,507.36",39.77%,221665587,McCormick_OldBay_OldBay_12Sightly_Sightly_Video_RON_Baltimore_GEO_CPV_SS_:30Seconds_:30_SK_Multi_A18+,,cwilliams@sightly.com
UM McCormick Old Bay May-Sept 2018 Instream,176-960-1998,1414128219,Richmond/ Norfolk - 15,6/1/2018,6/30/2018,"$6,009.79",39.77%,221665602,McCormick_OldBay_OldBay_6Sightly_Sightly_Video_RON_Richmond/Norfolk_GEO_CPV_SS_:15Seconds_:15_SK_Multi_A18+,,cwilliams@sightly.com
UM McCormick Old Bay May-Sept 2018 Instream,176-960-1998,1414128222,Richmond/ Norfolk - 30,6/1/2018,6/30/2018,"$6,009.79",39.77%,221499575,McCormick_OldBay_OldBay_13Sightly_Sightly_Video_RON_Richmond/Norfolk_GEO_CPV_SS_:30Seconds_:30_SK_Multi_A18+,,cwilliams@sightly.com
UM McCormick Old Bay May-Sept 2018 Instream,176-960-1998,1414128225,South Carolina - 15,6/1/2018,6/30/2018,"$7,512.27",39.77%,221668818,McCormick_OldBay_OldBay_8Sightly_Sightly_Video_RON_SouthCarolina_GEO_CPV_SS_:15Seconds_:15_SK_Multi_A18+,,cwilliams@sightly.com
UM McCormick Old Bay May-Sept 2018 Instream,176-960-1998,1414128228,South Carolina - 30,6/1/2018,6/30/2018,"$7,512.27",39.77%,221562526,McCormick_OldBay_OldBay_14Sightly_Sightly_Video_RON_SouthCarolina_GEO_CPV_SS_:30Seconds_:30_SK_Multi_A18+,,cwilliams@sightly.com
UM McCormick Old Bay May-Sept 2018 Instream,176-960-1998,1414128231,Washington - 15,6/1/2018,6/30/2018,"$4,507.36",39.77%,221665581,McCormick_OldBay_OldBay_10Sightly_Sightly_Video_RON_Washington_GEO_CPV_SS_:15Seconds_:15_SK_Multi_A18+,,cwilliams@sightly.com
UM McCormick Old Bay May-Sept 2018 Instream,176-960-1998,1414128234,Washington - 30,6/1/2018,6/30/2018,"$4,507.36",39.77%,221667855,McCormick_OldBay_OldBay_15Sightly_Sightly_Video_RON_Washington_GEO_CPV_SS_:30Seconds_:30_SK_Multi_A18+,,cwilliams@sightly.com
UM McCormick Old Bay May-Sept 2018 Instream,176-960-1998,1414056360,Atlanta - 15,7/1/2018,7/31/2018,"$7,762.71",39.77%,221668821,McCormick_OldBay_OldBay_2Sightly_Sightly_Video_RON_Atlanta_GEO_CPV_SS_:15Seconds_:15_SK_Multi_A18+,,cwilliams@sightly.com
UM McCormick Old Bay May-Sept 2018 Instream,176-960-1998,1414128210,Atlanta - 30,7/1/2018,7/31/2018,"$7,762.71",39.77%,221665593,McCormick_OldBay_OldBay_11Sightly_Sightly_Video_RON_Atlanta_GEO_CPV_SS_:30Seconds_:30_SK_Multi_A18+,,cwilliams@sightly.com
UM McCormick Old Bay May-Sept 2018 Instream,176-960-1998,1414128213,Baltimore - 15,7/1/2018,7/31/2018,"$4,657.61",39.77%,221499563,McCormick_OldBay_OldBay_4Sightly_Sightly_Video_RON_Baltimore_GEO_CPV_SS_:15Seconds_:15_SK_Multi_A18+,,cwilliams@sightly.com
UM McCormick Old Bay May-Sept 2018 Instream,176-960-1998,1414128216,Baltimore - 30,7/1/2018,7/31/2018,"$4,657.61",39.77%,221665587,McCormick_OldBay_OldBay_12Sightly_Sightly_Video_RON_Baltimore_GEO_CPV_SS_:30Seconds_:30_SK_Multi_A18+,,cwilliams@sightly.com
UM McCormick Old Bay May-Sept 2018 Instream,176-960-1998,1414128219,Richmond/ Norfolk - 15,7/1/2018,7/31/2018,"$6,210.14",39.77%,221665602,McCormick_OldBay_OldBay_6Sightly_Sightly_Video_RON_Richmond/Norfolk_GEO_CPV_SS_:15Seconds_:15_SK_Multi_A18+,,cwilliams@sightly.com
UM McCormick Old Bay May-Sept 2018 Instream,176-960-1998,1414128222,Richmond/ Norfolk - 30,7/1/2018,7/31/2018,"$6,210.14",39.77%,221499575,McCormick_OldBay_OldBay_13Sightly_Sightly_Video_RON_Richmond/Norfolk_GEO_CPV_SS_:30Seconds_:30_SK_Multi_A18+,,cwilliams@sightly.com
UM McCormick Old Bay May-Sept 2018 Instream,176-960-1998,1414128225,South Carolina - 15,7/1/2018,7/31/2018,"$7,762.68",39.77%,221668818,McCormick_OldBay_OldBay_8Sightly_Sightly_Video_RON_SouthCarolina_GEO_CPV_SS_:15Seconds_:15_SK_Multi_A18+,,cwilliams@sightly.com
UM McCormick Old Bay May-Sept 2018 Instream,176-960-1998,1414128228,South Carolina - 30,7/1/2018,7/31/2018,"$7,762.68",39.77%,221562526,McCormick_OldBay_OldBay_14Sightly_Sightly_Video_RON_SouthCarolina_GEO_CPV_SS_:30Seconds_:30_SK_Multi_A18+,,cwilliams@sightly.com
UM McCormick Old Bay May-Sept 2018 Instream,176-960-1998,1414128231,Washington - 15,7/1/2018,7/31/2018,"$4,657.61",39.77%,221665581,McCormick_OldBay_OldBay_10Sightly_Sightly_Video_RON_Washington_GEO_CPV_SS_:15Seconds_:15_SK_Multi_A18+,,cwilliams@sightly.com
UM McCormick Old Bay May-Sept 2018 Instream,176-960-1998,1414128234,Washington - 30,7/1/2018,7/31/2018,"$4,657.61",39.77%,221667855,McCormick_OldBay_OldBay_15Sightly_Sightly_Video_RON_Washington_GEO_CPV_SS_:30Seconds_:30_SK_Multi_A18+,,cwilliams@sightly.com
UM McCormick Old Bay May-Sept 2018 Instream,176-960-1998,1414056360,Atlanta - 15,8/1/2018,8/31/2018,"$7,762.71",39.77%,221668821,McCormick_OldBay_OldBay_2Sightly_Sightly_Video_RON_Atlanta_GEO_CPV_SS_:15Seconds_:15_SK_Multi_A18+,,cwilliams@sightly.com
UM McCormick Old Bay May-Sept 2018 Instream,176-960-1998,1414128210,Atlanta - 30,8/1/2018,8/31/2018,"$7,762.71",39.77%,221665593,McCormick_OldBay_OldBay_11Sightly_Sightly_Video_RON_Atlanta_GEO_CPV_SS_:30Seconds_:30_SK_Multi_A18+,,cwilliams@sightly.com
UM McCormick Old Bay May-Sept 2018 Instream,176-960-1998,1414128213,Baltimore - 15,8/1/2018,8/31/2018,"$4,657.61",39.77%,221499563,McCormick_OldBay_OldBay_4Sightly_Sightly_Video_RON_Baltimore_GEO_CPV_SS_:15Seconds_:15_SK_Multi_A18+,,cwilliams@sightly.com
UM McCormick Old Bay May-Sept 2018 Instream,176-960-1998,1414128216,Baltimore - 30,8/1/2018,8/31/2018,"$4,657.61",39.77%,221665587,McCormick_OldBay_OldBay_12Sightly_Sightly_Video_RON_Baltimore_GEO_CPV_SS_:30Seconds_:30_SK_Multi_A18+,,cwilliams@sightly.com
UM McCormick Old Bay May-Sept 2018 Instream,176-960-1998,1414128219,Richmond/ Norfolk - 15,8/1/2018,8/31/2018,"$6,210.14",39.77%,221665602,McCormick_OldBay_OldBay_6Sightly_Sightly_Video_RON_Richmond/Norfolk_GEO_CPV_SS_:15Seconds_:15_SK_Multi_A18+,,cwilliams@sightly.com
UM McCormick Old Bay May-Sept 2018 Instream,176-960-1998,1414128222,Richmond/ Norfolk - 30,8/1/2018,8/31/2018,"$6,210.14",39.77%,221499575,McCormick_OldBay_OldBay_13Sightly_Sightly_Video_RON_Richmond/Norfolk_GEO_CPV_SS_:30Seconds_:30_SK_Multi_A18+,,cwilliams@sightly.com
UM McCormick Old Bay May-Sept 2018 Instream,176-960-1998,1414128225,South Carolina - 15,8/1/2018,8/31/2018,"$7,762.68",39.77%,221668818,McCormick_OldBay_OldBay_8Sightly_Sightly_Video_RON_SouthCarolina_GEO_CPV_SS_:15Seconds_:15_SK_Multi_A18+,,cwilliams@sightly.com
UM McCormick Old Bay May-Sept 2018 Instream,176-960-1998,1414128228,South Carolina - 30,8/1/2018,8/31/2018,"$7,762.68",39.77%,221562526,McCormick_OldBay_OldBay_14Sightly_Sightly_Video_RON_SouthCarolina_GEO_CPV_SS_:30Seconds_:30_SK_Multi_A18+,,cwilliams@sightly.com
UM McCormick Old Bay May-Sept 2018 Instream,176-960-1998,1414128231,Washington - 15,8/1/2018,8/31/2018,"$4,657.61",39.77%,221665581,McCormick_OldBay_OldBay_10Sightly_Sightly_Video_RON_Washington_GEO_CPV_SS_:15Seconds_:15_SK_Multi_A18+,,cwilliams@sightly.com
UM McCormick Old Bay May-Sept 2018 Instream,176-960-1998,1414128234,Washington - 30,8/1/2018,8/31/2018,"$4,657.61",39.77%,221667855,McCormick_OldBay_OldBay_15Sightly_Sightly_Video_RON_Washington_GEO_CPV_SS_:30Seconds_:30_SK_Multi_A18+,,cwilliams@sightly.com
UM McCormick Old Bay May-Sept 2018 Instream,176-960-1998,1414056360,Atlanta - 15,9/1/2018,9/4/2018,$751.21,39.77%,221668821,McCormick_OldBay_OldBay_2Sightly_Sightly_Video_RON_Atlanta_GEO_CPV_SS_:15Seconds_:15_SK_Multi_A18+,,cwilliams@sightly.com
UM McCormick Old Bay May-Sept 2018 Instream,176-960-1998,1414128210,Atlanta - 30,9/1/2018,9/4/2018,$751.21,39.77%,221665593,McCormick_OldBay_OldBay_11Sightly_Sightly_Video_RON_Atlanta_GEO_CPV_SS_:30Seconds_:30_SK_Multi_A18+,,cwilliams@sightly.com
UM McCormick Old Bay May-Sept 2018 Instream,176-960-1998,1414128213,Baltimore - 15,9/1/2018,9/4/2018,$450.73,39.77%,221499563,McCormick_OldBay_OldBay_4Sightly_Sightly_Video_RON_Baltimore_GEO_CPV_SS_:15Seconds_:15_SK_Multi_A18+,,cwilliams@sightly.com
UM McCormick Old Bay May-Sept 2018 Instream,176-960-1998,1414128216,Baltimore - 30,9/1/2018,9/4/2018,$450.73,39.77%,221665587,McCormick_OldBay_OldBay_12Sightly_Sightly_Video_RON_Baltimore_GEO_CPV_SS_:30Seconds_:30_SK_Multi_A18+,,cwilliams@sightly.com
UM McCormick Old Bay May-Sept 2018 Instream,176-960-1998,1414128219,Richmond/ Norfolk - 15,9/1/2018,9/4/2018,$600.97,39.77%,221665602,McCormick_OldBay_OldBay_6Sightly_Sightly_Video_RON_Richmond/Norfolk_GEO_CPV_SS_:15Seconds_:15_SK_Multi_A18+,,cwilliams@sightly.com
UM McCormick Old Bay May-Sept 2018 Instream,176-960-1998,1414128222,Richmond/ Norfolk - 30,9/1/2018,9/4/2018,$600.97,39.77%,221499575,McCormick_OldBay_OldBay_13Sightly_Sightly_Video_RON_Richmond/Norfolk_GEO_CPV_SS_:30Seconds_:30_SK_Multi_A18+,,cwilliams@sightly.com
UM McCormick Old Bay May-Sept 2018 Instream,176-960-1998,1414128225,South Carolina - 15,9/1/2018,9/4/2018,$751.21,39.77%,221668818,McCormick_OldBay_OldBay_8Sightly_Sightly_Video_RON_SouthCarolina_GEO_CPV_SS_:15Seconds_:15_SK_Multi_A18+,,cwilliams@sightly.com
UM McCormick Old Bay May-Sept 2018 Instream,176-960-1998,1414128228,South Carolina - 30,9/1/2018,9/4/2018,$751.21,39.77%,221562526,McCormick_OldBay_OldBay_14Sightly_Sightly_Video_RON_SouthCarolina_GEO_CPV_SS_:30Seconds_:30_SK_Multi_A18+,,cwilliams@sightly.com
UM McCormick Old Bay May-Sept 2018 Instream,176-960-1998,1414128231,Washington - 15,9/1/2018,9/4/2018,$450.73,39.77%,221665581,McCormick_OldBay_OldBay_10Sightly_Sightly_Video_RON_Washington_GEO_CPV_SS_:15Seconds_:15_SK_Multi_A18+,,cwilliams@sightly.com
UM McCormick Old Bay May-Sept 2018 Instream,176-960-1998,1414128234,Washington - 30,9/1/2018,9/4/2018,$450.73,39.77%,221667855,McCormick_OldBay_OldBay_15Sightly_Sightly_Video_RON_Washington_GEO_CPV_SS_:30Seconds_:30_SK_Multi_A18+,,cwilliams@sightly.com
