﻿TargetView Order Name,Adwords CID,AdWords Campaign ID,AdWords Campaign Name,Start Date,End Date,Campaign Budget,Margin,Placement ID,Placement Name,BudgetGroupTimedBudgetId,CampaignManagerEmail
McCormick Grill Mates Order,239-670-8297,1411948772,Competitor Fan - 15,5/23/2018,5/31/2018,"$7,420.64",39.77%,221677827,McCormick_GrillMates_GrillMates_2Sightly_Sightly_Video_RON_CompetitorFan_DEMO_CPV_SS_:15Seconds_:15_SK_Multi_Other,,cwilliams@sightly.com
McCormick Grill Mates Order,239-670-8298,1412118658,Competitor Fan - 30,5/23/2018,5/31/2018,"$7,420.64",39.77%,221677833,McCormick_GrillMates_GrillMates_7Sightly_Sightly_Video_RON_CompetitorFan_DEMO_CPV_SS_:30Seconds_:30_SK_Multi_Other,,cwilliams@sightly.com
McCormick Grill Mates Order,239-670-8299,1412118925,Heavy Grillers - 15,5/23/2018,5/31/2018,"$7,420.64",39.77%,221673681,McCormick_GrillMates_GrillMates_4Sightly_Sightly_Video_RON_HeavyGrillers_DEMO_CPV_SS_:15Seconds_:15_SK_Multi_Other,,cwilliams@sightly.com
McCormick Grill Mates Order,239-670-8300,1411949219,Heavy Grillers - 30,5/23/2018,5/31/2018,"$7,420.64",39.77%,221677077,McCormick_GrillMates_GrillMates_8Sightly_Sightly_Video_RON_HeavyGrillers_DEMO_CPV_SS_:30Seconds_:30_SK_Multi_Other,,cwilliams@sightly.com
McCormick Grill Mates Order,239-670-8301,1411948301,Summer Party Planner - 15,5/23/2018,5/31/2018,"$7,420.64",39.77%,221569165,McCormick_GrillMates_GrillMates_6Sightly_Sightly_Video_RON_SummerPartyPlanner_DEMO_CPV_SS_:15 Seconds_:15_SK_Multi_Other,,cwilliams@sightly.com
McCormick Grill Mates Order,239-670-8301,1412118652,Summer Party Planner - 30,5/23/2018,5/31/2018,"$7,420.64",39.77%,221569168,McCormick_GrillMates_GrillMates_9Sightly_Sightly_Video_RON_SummerPartyPlanner_DEMO_CPV_SS_:30Seconds_:30_SK_Multi_Other,,cwilliams@sightly.com
McCormick Grill Mates Order,239-670-8297,1411948772,Competitor Fan - 15,6/1/2018,6/30/2018,"$13,095.24",39.77%,221677827,McCormick_GrillMates_GrillMates_2Sightly_Sightly_Video_RON_CompetitorFan_DEMO_CPV_SS_:15Seconds_:15_SK_Multi_Other,,cwilliams@sightly.com
McCormick Grill Mates Order,239-670-8298,1412118658,Competitor Fan - 30,6/1/2018,6/30/2018,"$13,095.24",39.77%,221677833,McCormick_GrillMates_GrillMates_7Sightly_Sightly_Video_RON_CompetitorFan_DEMO_CPV_SS_:30Seconds_:30_SK_Multi_Other,,cwilliams@sightly.com
McCormick Grill Mates Order,239-670-8299,1412118925,Heavy Grillers - 15,6/1/2018,6/30/2018,"$13,095.24",39.77%,221673681,McCormick_GrillMates_GrillMates_4Sightly_Sightly_Video_RON_HeavyGrillers_DEMO_CPV_SS_:15Seconds_:15_SK_Multi_Other,,cwilliams@sightly.com
McCormick Grill Mates Order,239-670-8300,1411949219,Heavy Grillers - 30,6/1/2018,6/30/2018,"$13,095.24",39.77%,221677077,McCormick_GrillMates_GrillMates_8Sightly_Sightly_Video_RON_HeavyGrillers_DEMO_CPV_SS_:30Seconds_:30_SK_Multi_Other,,cwilliams@sightly.com
McCormick Grill Mates Order,239-670-8301,1411948301,Summer Party Planner - 15,6/1/2018,6/30/2018,"$13,095.24",39.77%,221569165,McCormick_GrillMates_GrillMates_6Sightly_Sightly_Video_RON_SummerPartyPlanner_DEMO_CPV_SS_:15 Seconds_:15_SK_Multi_Other,,cwilliams@sightly.com
McCormick Grill Mates Order,239-670-8301,1412118652,Summer Party Planner - 30,6/1/2018,6/30/2018,"$13,095.24",39.77%,221569168,McCormick_GrillMates_GrillMates_9Sightly_Sightly_Video_RON_SummerPartyPlanner_DEMO_CPV_SS_:30Seconds_:30_SK_Multi_Other,,cwilliams@sightly.com
McCormick Grill Mates Order,239-670-8297,1411948772,Competitor Fan - 15,7/1/2018,7/31/2018,"$13,531.73",39.77%,221677827,McCormick_GrillMates_GrillMates_2Sightly_Sightly_Video_RON_CompetitorFan_DEMO_CPV_SS_:15Seconds_:15_SK_Multi_Other,,cwilliams@sightly.com
McCormick Grill Mates Order,239-670-8298,1412118658,Competitor Fan - 30,7/1/2018,7/31/2018,"$13,531.73",39.77%,221677833,McCormick_GrillMates_GrillMates_7Sightly_Sightly_Video_RON_CompetitorFan_DEMO_CPV_SS_:30Seconds_:30_SK_Multi_Other,,cwilliams@sightly.com
McCormick Grill Mates Order,239-670-8299,1412118925,Heavy Grillers - 15,7/1/2018,7/31/2018,"$13,531.73",39.77%,221673681,McCormick_GrillMates_GrillMates_4Sightly_Sightly_Video_RON_HeavyGrillers_DEMO_CPV_SS_:15Seconds_:15_SK_Multi_Other,,cwilliams@sightly.com
McCormick Grill Mates Order,239-670-8300,1411949219,Heavy Grillers - 30,7/1/2018,7/31/2018,"$13,531.73",39.77%,221677077,McCormick_GrillMates_GrillMates_8Sightly_Sightly_Video_RON_HeavyGrillers_DEMO_CPV_SS_:30Seconds_:30_SK_Multi_Other,,cwilliams@sightly.com
McCormick Grill Mates Order,239-670-8301,1411948301,Summer Party Planner - 15,7/1/2018,7/31/2018,"$13,531.73",39.77%,221569165,McCormick_GrillMates_GrillMates_6Sightly_Sightly_Video_RON_SummerPartyPlanner_DEMO_CPV_SS_:15 Seconds_:15_SK_Multi_Other,,cwilliams@sightly.com
McCormick Grill Mates Order,239-670-8301,1412118652,Summer Party Planner - 30,7/1/2018,7/31/2018,"$13,531.73",39.77%,221569168,McCormick_GrillMates_GrillMates_9Sightly_Sightly_Video_RON_SummerPartyPlanner_DEMO_CPV_SS_:30Seconds_:30_SK_Multi_Other,,cwilliams@sightly.com
McCormick Grill Mates Order,239-670-8297,1411948772,Competitor Fan - 15,8/1/2018,8/31/2018,"$13,531.73",39.77%,221677827,McCormick_GrillMates_GrillMates_2Sightly_Sightly_Video_RON_CompetitorFan_DEMO_CPV_SS_:15Seconds_:15_SK_Multi_Other,,cwilliams@sightly.com
McCormick Grill Mates Order,239-670-8298,1412118658,Competitor Fan - 30,8/1/2018,8/31/2018,"$13,531.73",39.77%,221677833,McCormick_GrillMates_GrillMates_7Sightly_Sightly_Video_RON_CompetitorFan_DEMO_CPV_SS_:30Seconds_:30_SK_Multi_Other,,cwilliams@sightly.com
McCormick Grill Mates Order,239-670-8299,1412118925,Heavy Grillers - 15,8/1/2018,8/31/2018,"$13,531.73",39.77%,221673681,McCormick_GrillMates_GrillMates_4Sightly_Sightly_Video_RON_HeavyGrillers_DEMO_CPV_SS_:15Seconds_:15_SK_Multi_Other,,cwilliams@sightly.com
McCormick Grill Mates Order,239-670-8300,1411949219,Heavy Grillers - 30,8/1/2018,8/31/2018,"$13,531.73",39.77%,221677077,McCormick_GrillMates_GrillMates_8Sightly_Sightly_Video_RON_HeavyGrillers_DEMO_CPV_SS_:30Seconds_:30_SK_Multi_Other,,cwilliams@sightly.com
McCormick Grill Mates Order,239-670-8301,1411948301,Summer Party Planner - 15,8/1/2018,8/31/2018,"$13,531.73",39.77%,221569165,McCormick_GrillMates_GrillMates_6Sightly_Sightly_Video_RON_SummerPartyPlanner_DEMO_CPV_SS_:15 Seconds_:15_SK_Multi_Other,,cwilliams@sightly.com
McCormick Grill Mates Order,239-670-8301,1412118652,Summer Party Planner - 30,8/1/2018,8/31/2018,"$13,531.73",39.77%,221569168,McCormick_GrillMates_GrillMates_9Sightly_Sightly_Video_RON_SummerPartyPlanner_DEMO_CPV_SS_:30Seconds_:30_SK_Multi_Other,,cwilliams@sightly.com
McCormick Grill Mates Order,239-670-8297,1411948772,Competitor Fan - 15,9/1/2018,9/3/2018,"$1,309.55",39.77%,221677827,McCormick_GrillMates_GrillMates_2Sightly_Sightly_Video_RON_CompetitorFan_DEMO_CPV_SS_:15Seconds_:15_SK_Multi_Other,,cwilliams@sightly.com
McCormick Grill Mates Order,239-670-8298,1412118658,Competitor Fan - 30,9/1/2018,9/3/2018,"$1,309.55",39.77%,221677833,McCormick_GrillMates_GrillMates_7Sightly_Sightly_Video_RON_CompetitorFan_DEMO_CPV_SS_:30Seconds_:30_SK_Multi_Other,,cwilliams@sightly.com
McCormick Grill Mates Order,239-670-8299,1412118925,Heavy Grillers - 15,9/1/2018,9/3/2018,"$1,309.55",39.77%,221673681,McCormick_GrillMates_GrillMates_4Sightly_Sightly_Video_RON_HeavyGrillers_DEMO_CPV_SS_:15Seconds_:15_SK_Multi_Other,,cwilliams@sightly.com
McCormick Grill Mates Order,239-670-8300,1411949219,Heavy Grillers - 30,9/1/2018,9/3/2018,"$1,309.55",39.77%,221677077,McCormick_GrillMates_GrillMates_8Sightly_Sightly_Video_RON_HeavyGrillers_DEMO_CPV_SS_:30Seconds_:30_SK_Multi_Other,,cwilliams@sightly.com
McCormick Grill Mates Order,239-670-8301,1411948301,Summer Party Planner - 15,9/1/2018,9/3/2018,"$1,309.55",39.77%,221569165,McCormick_GrillMates_GrillMates_6Sightly_Sightly_Video_RON_SummerPartyPlanner_DEMO_CPV_SS_:15 Seconds_:15_SK_Multi_Other,,cwilliams@sightly.com
McCormick Grill Mates Order,239-670-8301,1412118652,Summer Party Planner - 30,9/1/2018,9/3/2018,"$1,309.55",39.77%,221569168,McCormick_GrillMates_GrillMates_9Sightly_Sightly_Video_RON_SummerPartyPlanner_DEMO_CPV_SS_:30Seconds_:30_SK_Multi_Other,,cwilliams@sightly.com
