﻿TargetView Campaign Name,Adwords CID,AdWords Campaign ID,AdWords Campaign Name,Start Date,End Date,Campaign Budget,Margin,Placement ID,Placement Name,BudgetGroupTimedBudgetId,CampaignManagerEmail
LG OLED - Instream,971-474-0231,1405046603,Set To Impress - LG OLED AI HQ Spot 30,5/17/2018,5/20/2018,"$22,851.56",15.00%,907468,Sightly.com_SLY_CHD_Sightly Audience & Persona Set to Impress In-Stream :30 HQ Video_AW_PA_GF_NT_TVW_TVC_PTV_OLVN_CPCV_CRD_NAT_SVID_A25-54$75k+_AUT_STI_IS_DVM_NOCR_NS_N_VID_30_VPR_ROT_05/17_06/17_Innovid_1x1_1x1_CC,,jmasseth@sightly.com
LG OLED - Instream,971-474-0231,1405046603,Set To Impress - LG OLED AI HQ Spot 30,5/21/2018,5/27/2018,"$31,992.19",15.00%,907468,Sightly.com_SLY_CHD_Sightly Audience & Persona Set to Impress In-Stream :30 HQ Video_AW_PA_GF_NT_TVW_TVC_PTV_OLVN_CPCV_CRD_NAT_SVID_A25-54$75k+_AUT_STI_IS_DVM_NOCR_NS_N_VID_30_VPR_ROT_05/17_06/17_Innovid_1x1_1x1_CC,,jmasseth@sightly.com
